{
	"React_Component": {
		"prefix": "rc",
		"description": "React Component with CSS",
		"body": [
			"import React from 'react';\nimport PropTypes from 'prop-types';\n\nimport './${TM_FILENAME_BASE}.css';\n\nclass ${TM_FILENAME_BASE} extends React.Component {\n\n\tstatic propTypes = {}\n\n\trender() {\n\t\treturn (\n\t\t\t<div>$0</div>\n\t\t);\n\t}\n}\n\nexport default ${TM_FILENAME_BASE};\n",
		],
	}
}